900180,0
900180,0
900186,6
900191,23
900196,49
900201,83
900206,123
900211,168
900216,218
900221,272
900226,329
900231,384
900236,444
900241,506
900246,570
900251,635
900256,701
900261,766
900266,833
900271,901
900276,969
900281,1036
900286,1098
900291,1152
900296,1195
900301,1223
900306,1235
900311,1235
900316,1224
900321,1204
900326,1176
900331,1140
900336,1099
900341,1052
900346,1003